<svg width="114" height="129"
     viewBox="0 0 114 129">
      <path fill="#fff"
            d="M50.794 128.176c-.27 0-.54-.054-.795-.172l-3.785-2.312-3.641 2.235c-.75.351-1.433.294-1.984-.062a1.92 1.92 0 0 1-.881-1.616v-14.376h2.563v13.243l2.934-1.806a1.911 1.911 0 0 1 2.013-.006l2.935 1.802v-13.233h2.562v14.378a1.918 1.918 0 0 1-1.921 1.925z"/>
      <path fill="#fff"
            d="M62.272 122.05h-7.78v-2.564h5.217v-57.22l-10.51-10.52H9.09v67.74h28.846v2.563H6.524V49.184h43.736l12.01 12.02z"/>
      <path fill="#fff" d="M60.99 62.87H48.3V50.465h2.563v9.843H60.99z"/>
      <path fill="#fff"
            d="M46.211 98.223a6.972 6.972 0 0 1 6.965 6.965 6.973 6.973 0 0 1-6.965 6.965c-3.84 0-6.962-3.125-6.962-6.965 0-3.842 3.121-6.965 6.962-6.965zm0 16.492c5.253 0 9.527-4.274 9.527-9.527 0-5.254-4.274-9.528-9.527-9.528-5.25 0-9.525 4.274-9.525 9.528 0 5.253 4.275 9.527 9.525 9.527z"/>
      <path fill="#fff" d="M17.627 64.843h6.552V62.28h-6.552z"/>
      <path fill="#fff" d="M17.627 90.858H51.17v-2.563H17.627z"/>
      <path fill="#fff" d="M17.627 84.121H51.17v-2.562H17.627z"/>
      <path fill="#fff" d="M17.627 77.386H51.17v-2.562H17.627z"/>
      <path fill="#fff" d="M17.627 113.155h6.552v-2.563h-6.552z"/>
      <path fill="#fff" d="M77.21 47.501L.3 3.096 1.797.509l76.912 44.405z"/>
      <path fill="#fff"
            d="M84.24 84.57c-1.799-2.148-3.213-4.642-3.968-7.456-.519-1.938-.73-3.603-.744-5.14-.014-1.41.138-2.67.368-3.912L75.311 50.95a5.946 5.946 0 0 1 .603-4.522c.28-.485.628-.931 1.034-1.322l-7.788-4.497-.093-.058a5.949 5.949 0 0 1-2.678-3.562 5.945 5.945 0 0 1 .592-4.518l.003-.005-.003-.001a5.952 5.952 0 0 1 3.621-2.773 5.944 5.944 0 0 1 4.52.593l.004.003.001-.003 15.475 8.936.085.053a10.463 10.463 0 0 1 2.98 2.632 10.413 10.413 0 0 1 1.794 3.647l5.783 21.584a4.46 4.46 0 0 0 2.074 2.709c.714.41.96 1.323.55 2.037L93.445 89.938a1.492 1.492 0 0 1-2.037.55c-2.616-1.51-5.143-3.496-7.169-5.917zm7.386 2.55l8.985-15.563a7.427 7.427 0 0 1-2.257-3.647L92.57 46.325a7.431 7.431 0 0 0-3.389-4.476l-.077-.041-15.475-8.936.002-.003a2.973 2.973 0 0 0-2.256-.286 2.962 2.962 0 0 0-1.807 1.38l-.003-.001a2.971 2.971 0 0 0-.285 2.254 2.959 2.959 0 0 0 1.31 1.768l.068.039 9.51 5.49a5.953 5.953 0 0 1 3.878.738 5.97 5.97 0 0 1 1.906 1.734 5.88 5.88 0 0 1 .881 1.879l3.016 11.259-2.89.772-3.017-11.258a2.953 2.953 0 0 0-1.382-1.8 2.968 2.968 0 0 0-4.059 1.089 2.963 2.963 0 0 0-.3 2.25l4.664 17.403c.067.225.082.468.034.715-.237 1.203-.398 2.386-.387 3.658.012 1.276.197 2.694.651 4.39.634 2.365 1.836 4.476 3.37 6.309 1.467 1.754 3.231 3.25 5.093 4.47z"/>
      <path fill="#fff"
            d="M108.174 69.208l2.831 1.636a5.358 5.358 0 0 1 2.503 3.262 5.352 5.352 0 0 1-.539 4.074l-.002.004.002.002-9.52 16.49a5.355 5.355 0 0 1-3.265 2.505 5.355 5.355 0 0 1-4.075-.54l-2.834-1.635v.003a5.364 5.364 0 0 1-1.966-7.34l.002-.004-.002-.001 9.52-16.49a5.367 5.367 0 0 1 7.339-1.966l.004.003zm1.331 4.222l-2.829-1.635.001-.002a2.39 2.39 0 0 0-1.81-.233c-.59.159-1.12.54-1.45 1.112l-9.522 16.49-.002-.002a2.393 2.393 0 0 0-.233 1.812c.158.59.541 1.12 1.112 1.45l-.002.003 2.826 1.63c.57.329 1.222.395 1.816.236a2.378 2.378 0 0 0 1.45-1.113l9.52-16.491.003.002a2.383 2.383 0 0 0 .232-1.81 2.371 2.371 0 0 0-1.11-1.448z"/>
</svg>
